0
1
4
10
18
26
40
60
73
81
88
93
97
99
100
100
99
97
93
88
82
76
69
62
58
54
50
47
44
42
40
39
37
36
35
33
32
32
32
31
30
30
30
29
29
28
27
27
26
25
25
24
23
23
22
21
20
20
19
18
17
16
15
14
13
12
11
10
10
9
9
8
7
6
5
4
3
2
1
0