0
-2
-3
-5
-6
-8
-9
-11
-9
-11
-9
-8
-8
-9
-9
-12
-12
-14
-15
-15
-17
-18
-20
-18
-15
-9
-9
-5
0
6
12
18
24
28
30
30
25
15
3
-9
-20
-27
-33
-38
-44
-48
-50
-53
-53
-53
-54
-54
-54
-54
-54
-54
-53
-54
-54
-54
-59
-63
-63
-45
6
94
219
361
495
591
682
567
424
237
60
-69
-141
-171
-173
-161
-141
-100
-44
-25
-18
-13
-10
10
17
25
28
33
37
42
46
51
58
66
72
76
84
88
96
102
109
117
124
130
136
142
148
154
157
160
165
169
169
169
165
162
154
145
133
120
106
90
78
64
54
43
36
28
19
13
7
1
0
-2
-3
-5
-4
-4
-3
-3
-2
-1
2
4
8
16
32
64
96
160
219
361
495
591
660
680
676
640
620
590
540
500
173
120
85
70
63
57
52
47
43
43
43
42
40
39
36
35
33
31
30
29
30
30
30
30
27
27
27
27
27
30
33
36
37
40
41
42
42
46
50
50
51
51
61
66
70
72
77
79
84
88
92
97
101
105
108
112
115
119
121
123
126
128
128
128
126
124
119
114
106
99
90
81
73
65
59
52
48
43
38
34
28
24
22
20
18
16
14
12
11
10
9
8
7
6
5
4
3
3
3
3
2
2
2
1
1
1
0
0
0
0
0
0
0
0
0
0
0
0
0
0
0
0
0
0
0
0
0
0
0
0
0
0
0
0
0
0
0
0
0
0
0
0
0
0
0
0
0
0
0
0
0
0
0
0