Minutes,Commands,Phase Description Text,Cryst,Coll,PRBC,Blood loss (ml/min),Epi (mcg),Neo (mcg),Fent (mcg)
0,,Setup Phase,,,,,,,
3,,Occult GI bleeding occuring,,,,80,,,
8,,Bleeding recognized and patient resuscitated with IV Fluid,80,,,0,,,
13,,Anemia recognized and PRBCs started,,,60,,,,
18,END,,,,,,,,
