^C:\USERS\LIR\DOCUMENTS\VISUAL STUDIO 2012\PROJECTS\CD4\LIR\RELEASE\.NETFRAMEWORK,VERSION=V4.0.ASSEMBLYATTRIBUTES.OBJ|C:\USERS\LIR\DOCUMENTS\VISUAL STUDIO 2012\PROJECTS\CD4\LIR\RELEASE\ABOUT.OBJ|C:\USERS\LIR\DOCUMENTS\VISUAL STUDIO 2012\PROJECTS\CD4\LIR\RELEASE\ASSEMBLYINFO.OBJ|C:\USERS\LIR\DOCUMENTS\VISUAL STUDIO 2012\PROJECTS\CD4\LIR\RELEASE\CD-SIM.RES|C:\USERS\LIR\DOCUMENTS\VISUAL STUDIO 2012\PROJECTS\CD4\LIR\RELEASE\CDSIM.OBJ|C:\USERS\LIR\DOCUMENTS\VISUAL STUDIO 2012\PROJECTS\CD4\LIR\RELEASE\STDAFX.OBJ|C:\USERS\LIR\DOCUMENTS\VISUAL STUDIO 2012\PROJECTS\CD4\LIR\RELEASE\WAVEMONITOR.OBJ
C:\USERS\LIR\DOCUMENTS\VISUAL STUDIO 2012\PROJECTS\CD4\LIR\RELEASE\CD-SIM.RES
C:\USERS\LIR\DOCUMENTS\VISUAL STUDIO 2012\PROJECTS\CD4\LIR\RELEASE\ABOUT.OBJ
C:\USERS\LIR\DOCUMENTS\VISUAL STUDIO 2012\PROJECTS\CD4\LIR\RELEASE\ASSEMBLYINFO.OBJ
C:\USERS\LIR\DOCUMENTS\VISUAL STUDIO 2012\PROJECTS\CD4\LIR\RELEASE\CDSIM.OBJ
C:\USERS\LIR\DOCUMENTS\VISUAL STUDIO 2012\PROJECTS\CD4\LIR\RELEASE\STDAFX.OBJ
C:\USERS\LIR\DOCUMENTS\VISUAL STUDIO 2012\PROJECTS\CD4\LIR\RELEASE\WAVEMONITOR.OBJ
C:\USERS\LIR\DOCUMENTS\VISUAL STUDIO 2012\PROJECTS\CD4\LIR\RELEASE\.NETFRAMEWORK,VERSION=V4.0.ASSEMBLYATTRIBUTES.OBJ
C:\WINDOWS\GLOBALIZATION\SORTING\SORTDEFAULT.NLS
C:\PROGRAM FILES (X86)\MICROSOFT VISUAL STUDIO 11.0\VC\LIB\OLDNAMES.LIB
C:\PROGRAM FILES (X86)\MICROSOFT VISUAL STUDIO 11.0\VC\LIB\MSVCURT.LIB
C:\PROGRAM FILES (X86)\WINDOWS KITS\8.0\LIB\WIN8\UM\X86\MSCOREE.LIB
C:\PROGRAM FILES (X86)\WINDOWS KITS\8.0\LIB\WIN8\UM\X86\UUID.LIB
C:\PROGRAM FILES (X86)\WINDOWS KITS\8.0\LIB\WIN8\UM\X86\KERNEL32.LIB
C:\PROGRAM FILES (X86)\MICROSOFT VISUAL STUDIO 11.0\VC\BIN\1033\LINKUI.DLL
C:\WINDOWS\MICROSOFT.NET\FRAMEWORK\V2.0.50727\MSCORWKS.DLL
C:\WINDOWS\MICROSOFT.NET\FRAMEWORK\V4.0.30319\CLR.DLL
C:\PROGRAM FILES (X86)\MICROSOFT VISUAL STUDIO 11.0\VC\BIN\LINK.EXE.CONFIG
C:\PROGRAM FILES (X86)\WINDOWS KITS\8.0\BIN\X86\RC.EXE
C:\PROGRAM FILES (X86)\MICROSOFT VISUAL STUDIO 11.0\VC\BIN\CVTRES.EXE
C:\WINDOWS\SYSTEM32\TZRES.DLL
C:\USERS\LIR\DOCUMENTS\VISUAL STUDIO 2012\PROJECTS\CD4\LIR\RELEASE\LIR.ABOUT.RESOURCES
C:\USERS\LIR\DOCUMENTS\VISUAL STUDIO 2012\PROJECTS\CD4\LIR\RELEASE\LIR.FORM1.RESOURCES
C:\USERS\LIR\DOCUMENTS\VISUAL STUDIO 2012\PROJECTS\CD4\LIR\RELEASE\LIR.WAVEMONITOR.RESOURCES
C:\WINDOWS\SYSTEM32\RSAENH.DLL
